EESchema Schematic File Version 4
LIBS:artys7_hat-cache
EELAYER 26 0
EELAYER END
$Descr A4 11693 8268
encoding utf-8
Sheet 1 1
Title ""
Date ""
Rev ""
Comp ""
Comment1 ""
Comment2 ""
Comment3 ""
Comment4 ""
$EndDescr
$Comp
L mylib:W5500 U1
U 1 1 5C51A2DD
P 6750 3250
F 0 "U1" H 6850 3350 50  0000 L CNN
F 1 "W5500" H 6800 3250 50  0000 L CNN
F 2 "Package_QFP:LQFP-48_7x7mm_P0.5mm" H 6750 3150 50  0001 C CNN
F 3 "" H 6750 3150 50  0001 C CNN
F 4 "M" H 6750 3250 50  0001 C CNN "Distributor"
F 5 "950-W5500" H 6750 3250 50  0001 C CNN "OrderNr"
	1    6750 3250
	1    0    0    -1  
$EndComp
$Comp
L Device:R R9
U 1 1 5C51A4ED
P 8350 2700
F 0 "R9" V 8270 2700 50  0000 C CNN
F 1 "0" V 8350 2700 50  0000 C CNN
F 2 "Resistor_SMD:R_0603_1608Metric" V 8280 2700 50  0001 C CNN
F 3 "~" H 8350 2700 50  0001 C CNN
	1    8350 2700
	0    1    1    0   
$EndComp
$Comp
L Device:R R10
U 1 1 5C51A523
P 8350 2800
F 0 "R10" V 8430 2800 50  0000 C CNN
F 1 "0" V 8350 2800 50  0000 C CNN
F 2 "Resistor_SMD:R_0603_1608Metric" V 8280 2800 50  0001 C CNN
F 3 "~" H 8350 2800 50  0001 C CNN
	1    8350 2800
	0    1    1    0   
$EndComp
$Comp
L Device:R R11
U 1 1 5C51A55D
P 8350 3100
F 0 "R11" V 8270 3100 50  0000 C CNN
F 1 "0" V 8350 3100 50  0000 C CNN
F 2 "Resistor_SMD:R_0603_1608Metric" V 8280 3100 50  0001 C CNN
F 3 "~" H 8350 3100 50  0001 C CNN
	1    8350 3100
	0    1    1    0   
$EndComp
$Comp
L Device:R R12
U 1 1 5C51A587
P 8350 3200
F 0 "R12" V 8430 3190 50  0000 C CNN
F 1 "0" V 8350 3200 50  0000 C CNN
F 2 "Resistor_SMD:R_0603_1608Metric" V 8280 3200 50  0001 C CNN
F 3 "~" H 8350 3200 50  0001 C CNN
	1    8350 3200
	0    1    1    0   
$EndComp
Wire Wire Line
	7800 2700 8200 2700
Wire Wire Line
	7800 2800 8200 2800
Wire Wire Line
	7800 3100 8200 3100
Wire Wire Line
	7800 3200 8200 3200
$Comp
L Device:R R14
U 1 1 5C51ACA9
P 8600 2450
F 0 "R14" V 8520 2340 50  0000 L CNN
F 1 "49R" V 8600 2370 50  0000 L CNN
F 2 "Resistor_SMD:R_0603_1608Metric" V 8530 2450 50  0001 C CNN
F 3 "~" H 8600 2450 50  0001 C CNN
	1    8600 2450
	1    0    0    -1  
$EndComp
$Comp
L Device:R R16
U 1 1 5C51ACF1
P 8750 2450
F 0 "R16" V 8680 2340 50  0000 L CNN
F 1 "49R" V 8750 2370 50  0000 L CNN
F 2 "Resistor_SMD:R_0603_1608Metric" V 8680 2450 50  0001 C CNN
F 3 "~" H 8750 2450 50  0001 C CNN
	1    8750 2450
	1    0    0    -1  
$EndComp
$Comp
L Device:R R17
U 1 1 5C51AD13
P 8900 2450
F 0 "R17" V 8830 2340 50  0000 L CNN
F 1 "10R" V 8900 2380 50  0000 L CNN
F 2 "Resistor_SMD:R_0603_1608Metric" V 8830 2450 50  0001 C CNN
F 3 "~" H 8900 2450 50  0001 C CNN
	1    8900 2450
	1    0    0    -1  
$EndComp
Wire Wire Line
	8500 2700 8750 2700
Wire Wire Line
	9350 2700 9350 3000
Wire Wire Line
	9350 3000 9650 3000
Wire Wire Line
	8500 2800 8600 2800
Wire Wire Line
	9650 2900 8900 2900
Wire Wire Line
	8900 2900 8900 2600
Wire Wire Line
	8750 2600 8750 2700
Connection ~ 8750 2700
Wire Wire Line
	8750 2700 9350 2700
Wire Wire Line
	8600 2600 8600 2800
Connection ~ 8600 2800
Wire Wire Line
	8600 2800 9650 2800
Wire Wire Line
	8600 2300 8600 2200
Wire Wire Line
	8600 2200 8750 2200
Wire Wire Line
	8900 2200 8900 2300
Wire Wire Line
	8750 2300 8750 2200
Connection ~ 8750 2200
Wire Wire Line
	8750 2200 8900 2200
$Comp
L Device:C C7
U 1 1 5C51B427
P 8900 3100
F 0 "C7" H 9015 3146 50  0000 L CNN
F 1 "22n" H 9015 3055 50  0000 L CNN
F 2 "Capacitor_SMD:C_0603_1608Metric" H 8938 2950 50  0001 C CNN
F 3 "~" H 8900 3100 50  0001 C CNN
	1    8900 3100
	1    0    0    -1  
$EndComp
Wire Wire Line
	8900 2900 8900 2950
Connection ~ 8900 2900
Wire Wire Line
	8900 3300 8900 3250
$Comp
L Device:C C8
U 1 1 5C51BA28
P 8900 3800
F 0 "C8" V 8940 3890 50  0000 C CNN
F 1 "6.8n" V 8860 3920 50  0000 C CNN
F 2 "Capacitor_SMD:C_0603_1608Metric" H 8938 3650 50  0001 C CNN
F 3 "~" H 8900 3800 50  0001 C CNN
	1    8900 3800
	0    1    1    0   
$EndComp
$Comp
L Device:C C9
U 1 1 5C51BA76
P 8900 4000
F 0 "C9" V 8940 4090 50  0000 C CNN
F 1 "6.8n" V 8860 4130 50  0000 C CNN
F 2 "Capacitor_SMD:C_0603_1608Metric" H 8938 3850 50  0001 C CNN
F 3 "~" H 8900 4000 50  0001 C CNN
	1    8900 4000
	0    1    1    0   
$EndComp
Wire Wire Line
	8500 3100 8700 3100
Wire Wire Line
	8700 3100 8700 3800
Wire Wire Line
	8700 3800 8750 3800
Wire Wire Line
	8500 3200 8550 3200
Wire Wire Line
	8550 3200 8550 4000
Wire Wire Line
	8550 4000 8750 4000
$Comp
L Device:R R13
U 1 1 5C51C471
P 8550 4250
F 0 "R13" V 8470 4140 50  0000 L CNN
F 1 "49R" V 8550 4170 50  0000 L CNN
F 2 "Resistor_SMD:R_0603_1608Metric" V 8480 4250 50  0001 C CNN
F 3 "~" H 8550 4250 50  0001 C CNN
	1    8550 4250
	1    0    0    -1  
$EndComp
$Comp
L Device:R R15
U 1 1 5C51C4D7
P 8700 4250
F 0 "R15" V 8780 4150 50  0000 L CNN
F 1 "49R" V 8700 4180 50  0000 L CNN
F 2 "Resistor_SMD:R_0603_1608Metric" V 8630 4250 50  0001 C CNN
F 3 "~" H 8700 4250 50  0001 C CNN
	1    8700 4250
	1    0    0    -1  
$EndComp
$Comp
L Device:C C6
U 1 1 5C51C505
P 8700 4750
F 0 "C6" H 8585 4704 50  0000 R CNN
F 1 "15n" H 8585 4795 50  0000 R CNN
F 2 "Capacitor_SMD:C_0603_1608Metric" H 8738 4600 50  0001 C CNN
F 3 "~" H 8700 4750 50  0001 C CNN
	1    8700 4750
	-1   0    0    1   
$EndComp
Wire Wire Line
	9650 3200 9350 3200
Wire Wire Line
	9350 3200 9350 4500
Wire Wire Line
	9350 4500 8700 4500
Wire Wire Line
	8550 4500 8550 4400
Wire Wire Line
	8700 4400 8700 4500
Connection ~ 8700 4500
Wire Wire Line
	8700 4500 8550 4500
Wire Wire Line
	8700 4600 8700 4500
Wire Wire Line
	8550 4100 8550 4000
Connection ~ 8550 4000
Wire Wire Line
	8700 4100 8700 3800
Connection ~ 8700 3800
Wire Wire Line
	8700 5000 8700 4900
Wire Wire Line
	9050 3800 9400 3800
Wire Wire Line
	9400 3800 9400 3300
Wire Wire Line
	9400 3300 9650 3300
Wire Wire Line
	9050 4000 9450 4000
Wire Wire Line
	9450 4000 9450 3100
Wire Wire Line
	9450 3100 9650 3100
Wire Wire Line
	10250 2600 10250 2500
Wire Wire Line
	10250 2500 10350 2500
Wire Wire Line
	10350 2500 10350 2550
Wire Wire Line
	9600 3550 9600 3500
Wire Wire Line
	9600 3500 9650 3500
$Comp
L Device:R R18
U 1 1 5C520D37
P 10750 4500
F 0 "R18" V 10830 4600 50  0000 R CNN
F 1 "330" V 10740 4570 50  0000 R CNN
F 2 "Resistor_SMD:R_0603_1608Metric" V 10680 4500 50  0001 C CNN
F 3 "~" H 10750 4500 50  0001 C CNN
	1    10750 4500
	-1   0    0    1   
$EndComp
$Comp
L Device:R R19
U 1 1 5C520DB1
P 10900 4500
F 0 "R19" V 10810 4550 50  0000 C CNN
F 1 "330" V 10890 4500 50  0000 C CNN
F 2 "Resistor_SMD:R_0603_1608Metric" V 10830 4500 50  0001 C CNN
F 3 "~" H 10900 4500 50  0001 C CNN
	1    10900 4500
	-1   0    0    1   
$EndComp
$Comp
L power:+3V3 #PWR0105
U 1 1 5C520E9D
P 10750 2750
F 0 "#PWR0105" H 10750 2600 50  0001 C CNN
F 1 "+3V3" H 10765 2923 50  0000 C CNN
F 2 "" H 10750 2750 50  0001 C CNN
F 3 "" H 10750 2750 50  0001 C CNN
	1    10750 2750
	1    0    0    -1  
$EndComp
Wire Wire Line
	10750 2750 10750 2800
Wire Wire Line
	10750 3400 10650 3400
Wire Wire Line
	10650 2800 10750 2800
Connection ~ 10750 2800
Wire Wire Line
	10750 2800 10750 3400
Wire Wire Line
	10650 3500 10750 3500
Wire Wire Line
	10650 2900 10900 2900
Wire Wire Line
	5700 3600 5400 3600
Wire Wire Line
	5400 3600 5400 5400
Wire Wire Line
	10750 3500 10750 4350
Wire Wire Line
	10750 4650 10750 5400
Wire Wire Line
	5700 3800 5500 3800
Wire Wire Line
	5500 3800 5500 5500
Wire Wire Line
	10900 5500 10900 4650
Wire Wire Line
	10900 2900 10900 4350
$Comp
L power:+3.3VA #PWR0106
U 1 1 5C52FC8E
P 8750 2100
F 0 "#PWR0106" H 8750 1950 50  0001 C CNN
F 1 "+3.3VA" H 8765 2273 50  0000 C CNN
F 2 "" H 8750 2100 50  0001 C CNN
F 3 "" H 8750 2100 50  0001 C CNN
	1    8750 2100
	1    0    0    -1  
$EndComp
Wire Wire Line
	8750 2100 8750 2200
$Comp
L power:+3.3VA #PWR0107
U 1 1 5C531481
P 7850 3000
F 0 "#PWR0107" H 7850 2850 50  0001 C CNN
F 1 "+3.3VA" V 7865 3128 50  0000 L CNN
F 2 "" H 7850 3000 50  0001 C CNN
F 3 "" H 7850 3000 50  0001 C CNN
	1    7850 3000
	0    1    1    0   
$EndComp
$Comp
L power:+3.3VA #PWR0108
U 1 1 5C538226
P 7850 3700
F 0 "#PWR0108" H 7850 3550 50  0001 C CNN
F 1 "+3.3VA" V 7900 3650 50  0000 L CNN
F 2 "" H 7850 3700 50  0001 C CNN
F 3 "" H 7850 3700 50  0001 C CNN
	1    7850 3700
	0    1    1    0   
$EndComp
$Comp
L Device:R R8
U 1 1 5C53DC5C
P 8150 3800
F 0 "R8" H 8100 3770 50  0000 R CNN
F 1 "12.4k" H 8100 3840 50  0000 R CNN
F 2 "Resistor_SMD:R_0603_1608Metric" V 8080 3800 50  0001 C CNN
F 3 "~" H 8150 3800 50  0001 C CNN
	1    8150 3800
	-1   0    0    1   
$EndComp
Wire Wire Line
	8150 4000 8150 3950
Wire Wire Line
	7800 3600 8150 3600
Wire Wire Line
	8150 3600 8150 3650
Wire Wire Line
	7200 4350 7200 4300
$Comp
L power:+3.3VA #PWR0109
U 1 1 5C551BED
P 6900 4350
F 0 "#PWR0109" H 6900 4200 50  0001 C CNN
F 1 "+3.3VA" V 6900 4590 50  0000 C CNN
F 2 "" H 6900 4350 50  0001 C CNN
F 3 "" H 6900 4350 50  0001 C CNN
	1    6900 4350
	-1   0    0    1   
$EndComp
$Comp
L power:+3.3VA #PWR0110
U 1 1 5C551C76
P 7100 4350
F 0 "#PWR0110" H 7100 4200 50  0001 C CNN
F 1 "+3.3VA" V 7100 4600 50  0000 C CNN
F 2 "" H 7100 4350 50  0001 C CNN
F 3 "" H 7100 4350 50  0001 C CNN
	1    7100 4350
	-1   0    0    1   
$EndComp
$Comp
L power:+3.3VA #PWR0111
U 1 1 5C551CA5
P 6500 4350
F 0 "#PWR0111" H 6500 4200 50  0001 C CNN
F 1 "+3.3VA" V 6540 4450 50  0000 C CNN
F 2 "" H 6500 4350 50  0001 C CNN
F 3 "" H 6500 4350 50  0001 C CNN
	1    6500 4350
	-1   0    0    1   
$EndComp
Wire Wire Line
	6500 4300 6500 4350
Wire Wire Line
	6700 4300 6700 4350
Wire Wire Line
	6900 4300 6900 4350
Wire Wire Line
	7000 4300 7000 4350
Wire Wire Line
	7100 4300 7100 4350
Wire Wire Line
	7850 3700 7800 3700
$Comp
L power:+3.3VA #PWR0112
U 1 1 5C55FF0D
P 7850 3400
F 0 "#PWR0112" H 7850 3250 50  0001 C CNN
F 1 "+3.3VA" V 7850 3510 50  0000 L CNN
F 2 "" H 7850 3400 50  0001 C CNN
F 3 "" H 7850 3400 50  0001 C CNN
	1    7850 3400
	0    1    1    0   
$EndComp
Wire Wire Line
	7850 3400 7800 3400
Wire Wire Line
	7850 3000 7800 3000
Wire Wire Line
	7850 2900 7800 2900
Wire Wire Line
	7850 3500 7800 3500
Wire Wire Line
	7300 2150 7300 2200
$Comp
L Device:C C5
U 1 1 5C56A1EC
P 6600 4650
F 0 "C5" H 6700 4580 50  0000 R CNN
F 1 "4.7µ" H 6650 4760 50  0000 R CNN
F 2 "Capacitor_SMD:C_0603_1608Metric" H 6638 4500 50  0001 C CNN
F 3 "~" H 6600 4650 50  0001 C CNN
	1    6600 4650
	-1   0    0    1   
$EndComp
$Comp
L Device:C C4
U 1 1 5C56A268
P 6400 4650
F 0 "C4" H 6520 4580 50  0000 R CNN
F 1 "10n" H 6450 4740 50  0000 R CNN
F 2 "Capacitor_SMD:C_0603_1608Metric" H 6438 4500 50  0001 C CNN
F 3 "~" H 6400 4650 50  0001 C CNN
	1    6400 4650
	-1   0    0    1   
$EndComp
Wire Wire Line
	6600 4300 6600 4500
Wire Wire Line
	6400 4300 6400 4500
Wire Wire Line
	6400 4800 6400 4850
Wire Wire Line
	6600 4800 6600 4850
$Comp
L power:+3V3 #PWR0113
U 1 1 5C572493
P 5650 3500
F 0 "#PWR0113" H 5650 3350 50  0001 C CNN
F 1 "+3V3" V 5665 3628 50  0000 L CNN
F 2 "" H 5650 3500 50  0001 C CNN
F 3 "" H 5650 3500 50  0001 C CNN
	1    5650 3500
	0    -1   -1   0   
$EndComp
$Comp
L power:GND #PWR0114
U 1 1 5C57256C
P 5650 3400
F 0 "#PWR0114" H 5650 3150 50  0001 C CNN
F 1 "GND" V 5655 3272 50  0000 R CNN
F 2 "" H 5650 3400 50  0001 C CNN
F 3 "" H 5650 3400 50  0001 C CNN
	1    5650 3400
	0    1    1    0   
$EndComp
Wire Wire Line
	5650 3400 5700 3400
Wire Wire Line
	5650 3500 5700 3500
$Comp
L Oscillator:XO32 X1
U 1 1 5C578EE9
P 4500 3850
F 0 "X1" H 4841 3896 50  0000 L CNN
F 1 "25MHz" H 4841 3805 50  0000 L CNN
F 2 "Oscillator:Oscillator_SMD_EuroQuartz_XO32-4Pin_3.2x2.5mm" H 5200 3500 50  0001 C CNN
F 3 "http://cdn-reichelt.de/documents/datenblatt/B400/XO32.pdf" H 4400 3850 50  0001 C CNN
F 4 "M" H 4500 3850 50  0001 C CNN "Distributor"
F 5 "520-3225MV-250-BNT" H 4500 3850 50  0001 C CNN "OrderNr"
	1    4500 3850
	1    0    0    -1  
$EndComp
$Comp
L power:GND #PWR0115
U 1 1 5C57B4CB
P 4500 4150
F 0 "#PWR0115" H 4500 3900 50  0001 C CNN
F 1 "GND" H 4505 3977 50  0000 C CNN
F 2 "" H 4500 4150 50  0001 C CNN
F 3 "" H 4500 4150 50  0001 C CNN
	1    4500 4150
	1    0    0    -1  
$EndComp
$Comp
L power:+3V3 #PWR0116
U 1 1 5C57B56E
P 4500 3450
F 0 "#PWR0116" H 4500 3300 50  0001 C CNN
F 1 "+3V3" H 4515 3623 50  0000 C CNN
F 2 "" H 4500 3450 50  0001 C CNN
F 3 "" H 4500 3450 50  0001 C CNN
	1    4500 3450
	1    0    0    -1  
$EndComp
Wire Wire Line
	4800 3850 5150 3850
Wire Wire Line
	5150 3850 5150 3300
Wire Wire Line
	5150 3300 5700 3300
Text GLabel 4900 2700 0    50   Output ~ 0
INTn
Text GLabel 4900 2800 0    50   Input ~ 0
MOSI0
Text GLabel 4900 2900 0    50   Output ~ 0
MISO0
Text GLabel 4900 3000 0    50   Input ~ 0
SCLK0
Text GLabel 4900 3100 0    50   Input ~ 0
SCS0n
Text GLabel 4900 2000 0    50   Input ~ 0
RSTn
Wire Wire Line
	4900 2700 5250 2700
Wire Wire Line
	4900 2800 5700 2800
Wire Wire Line
	4900 2900 5700 2900
Wire Wire Line
	4900 3000 5700 3000
Wire Wire Line
	4900 3100 5150 3100
Wire Wire Line
	4900 2000 5350 2000
Wire Wire Line
	6200 2000 6200 2200
$Comp
L Device:R R5
U 1 1 5C59C344
P 6800 1900
F 0 "R5" V 6750 1700 50  0000 L CNN
F 1 "10k" V 6800 1820 50  0000 L CNN
F 2 "Resistor_SMD:R_0603_1608Metric" V 6730 1900 50  0001 C CNN
F 3 "~" H 6800 1900 50  0001 C CNN
	1    6800 1900
	1    0    0    -1  
$EndComp
$Comp
L Device:R R6
U 1 1 5C59C3CA
P 6900 1900
F 0 "R6" V 6850 1700 50  0000 L CNN
F 1 "10k" V 6900 1820 50  0000 L CNN
F 2 "Resistor_SMD:R_0603_1608Metric" V 6830 1900 50  0001 C CNN
F 3 "~" H 6900 1900 50  0001 C CNN
	1    6900 1900
	1    0    0    -1  
$EndComp
$Comp
L Device:R R7
U 1 1 5C59C412
P 7000 1900
F 0 "R7" V 6950 1700 50  0000 L CNN
F 1 "10k" V 7000 1820 50  0000 L CNN
F 2 "Resistor_SMD:R_0603_1608Metric" V 6930 1900 50  0001 C CNN
F 3 "~" H 7000 1900 50  0001 C CNN
	1    7000 1900
	1    0    0    -1  
$EndComp
$Comp
L power:+3V3 #PWR0117
U 1 1 5C59CBE7
P 6900 1650
F 0 "#PWR0117" H 6900 1500 50  0001 C CNN
F 1 "+3V3" H 6915 1823 50  0000 C CNN
F 2 "" H 6900 1650 50  0001 C CNN
F 3 "" H 6900 1650 50  0001 C CNN
	1    6900 1650
	1    0    0    -1  
$EndComp
Wire Wire Line
	6800 1750 6800 1700
Wire Wire Line
	6800 1700 6900 1700
Wire Wire Line
	7000 1700 7000 1750
Wire Wire Line
	6900 1750 6900 1700
Connection ~ 6900 1700
Wire Wire Line
	6900 1700 7000 1700
Wire Wire Line
	6900 1650 6900 1700
Wire Wire Line
	6800 2050 6800 2200
Wire Wire Line
	6900 2050 6900 2200
Wire Wire Line
	7000 2050 7000 2200
$Comp
L Device:R R1
U 1 1 5C5B38E1
P 5150 1750
F 0 "R1" V 5100 1550 50  0000 L CNN
F 1 "10k" V 5150 1670 50  0000 L CNN
F 2 "Resistor_SMD:R_0603_1608Metric" V 5080 1750 50  0001 C CNN
F 3 "~" H 5150 1750 50  0001 C CNN
	1    5150 1750
	1    0    0    -1  
$EndComp
$Comp
L Device:R R2
U 1 1 5C5B3985
P 5250 1750
F 0 "R2" V 5200 1550 50  0000 L CNN
F 1 "10k" V 5250 1670 50  0000 L CNN
F 2 "Resistor_SMD:R_0603_1608Metric" V 5180 1750 50  0001 C CNN
F 3 "~" H 5250 1750 50  0001 C CNN
	1    5250 1750
	1    0    0    -1  
$EndComp
Wire Wire Line
	5150 1900 5150 3100
Connection ~ 5150 3100
Wire Wire Line
	5150 3100 5700 3100
Wire Wire Line
	5250 1900 5250 2700
Connection ~ 5250 2700
Wire Wire Line
	5250 2700 5700 2700
$Comp
L Device:R R3
U 1 1 5C5BE352
P 5350 1750
F 0 "R3" V 5300 1550 50  0000 L CNN
F 1 "10k" V 5350 1670 50  0000 L CNN
F 2 "Resistor_SMD:R_0603_1608Metric" V 5280 1750 50  0001 C CNN
F 3 "~" H 5350 1750 50  0001 C CNN
	1    5350 1750
	1    0    0    -1  
$EndComp
Wire Wire Line
	5350 1900 5350 2000
Connection ~ 5350 2000
Wire Wire Line
	5350 2000 6200 2000
$Comp
L power:+3V3 #PWR0118
U 1 1 5C5C1EC9
P 5250 1500
F 0 "#PWR0118" H 5250 1350 50  0001 C CNN
F 1 "+3V3" H 5265 1673 50  0000 C CNN
F 2 "" H 5250 1500 50  0001 C CNN
F 3 "" H 5250 1500 50  0001 C CNN
	1    5250 1500
	1    0    0    -1  
$EndComp
Wire Wire Line
	5150 1600 5150 1550
Wire Wire Line
	5150 1550 5250 1550
Wire Wire Line
	5350 1550 5350 1600
Wire Wire Line
	5250 1600 5250 1550
Connection ~ 5250 1550
Wire Wire Line
	5250 1550 5350 1550
Wire Wire Line
	5250 1550 5250 1500
$Comp
L Device:R R4
U 1 1 5C5CF04A
P 6050 4450
F 0 "R4" V 6000 4250 50  0000 L CNN
F 1 "10k" V 6050 4370 50  0000 L CNN
F 2 "Resistor_SMD:R_0603_1608Metric" V 5980 4450 50  0001 C CNN
F 3 "~" H 6050 4450 50  0001 C CNN
	1    6050 4450
	0    1    1    0   
$EndComp
$Comp
L power:GND #PWR0119
U 1 1 5C5CF478
P 5800 4450
F 0 "#PWR0119" H 5800 4200 50  0001 C CNN
F 1 "GND" V 5805 4322 50  0000 R CNN
F 2 "" H 5800 4450 50  0001 C CNN
F 3 "" H 5800 4450 50  0001 C CNN
	1    5800 4450
	0    1    1    0   
$EndComp
Wire Wire Line
	5800 4450 5900 4450
Wire Wire Line
	6200 4450 6300 4450
Wire Wire Line
	6300 4450 6300 4300
Wire Wire Line
	4500 3450 4500 3500
Wire Wire Line
	4500 3500 4150 3500
Wire Wire Line
	4150 3500 4150 3850
Wire Wire Line
	4150 3850 4200 3850
Connection ~ 4500 3500
Wire Wire Line
	4500 3500 4500 3550
$Comp
L Device:C C1
U 1 1 5C5EE638
P 3850 3900
F 0 "C1" H 3735 3854 50  0000 R CNN
F 1 "100n" H 3735 3945 50  0000 R CNN
F 2 "Capacitor_SMD:C_0603_1608Metric" H 3888 3750 50  0001 C CNN
F 3 "~" H 3850 3900 50  0001 C CNN
	1    3850 3900
	-1   0    0    1   
$EndComp
$Comp
L power:+3V3 #PWR0128
U 1 1 5C5EE783
P 3850 3650
F 0 "#PWR0128" H 3850 3500 50  0001 C CNN
F 1 "+3V3" H 3865 3823 50  0000 C CNN
F 2 "" H 3850 3650 50  0001 C CNN
F 3 "" H 3850 3650 50  0001 C CNN
	1    3850 3650
	1    0    0    -1  
$EndComp
$Comp
L power:GND #PWR0129
U 1 1 5C5EE7C8
P 3850 4150
F 0 "#PWR0129" H 3850 3900 50  0001 C CNN
F 1 "GND" H 3855 3977 50  0000 C CNN
F 2 "" H 3850 4150 50  0001 C CNN
F 3 "" H 3850 4150 50  0001 C CNN
	1    3850 4150
	1    0    0    -1  
$EndComp
Wire Wire Line
	3850 4150 3850 4050
Wire Wire Line
	3850 3750 3850 3650
$Comp
L mylib:SI-60024-F U2
U 1 1 5C608DAA
P 10250 3150
F 0 "U2" H 10350 3672 50  0000 C CNN
F 1 "SI-60024-F" H 10350 3763 50  0000 C CNN
F 2 "myfootprints:SI-60024-F" H 10250 3150 50  0001 C CNN
F 3 "" H 10250 3150 50  0001 C CNN
F 4 "M" H 10250 3150 50  0001 C CNN "Distributor"
F 5 "530-SI-60024-F" H 10250 3150 50  0001 C CNN "OrderNr"
	1    10250 3150
	-1   0    0    1   
$EndComp
Wire Wire Line
	5400 5400 10750 5400
Wire Wire Line
	5500 5500 10900 5500
$Comp
L Device:Ferrite_Bead_Small L1
U 1 1 5C63E747
P 9000 1100
F 0 "L1" V 8763 1100 50  0000 C CNN
F 1 "Ferrite_Bead_Small" V 8854 1100 50  0000 C CNN
F 2 "Inductor_SMD:L_0805_2012Metric" V 8930 1100 50  0001 C CNN
F 3 "~" H 9000 1100 50  0001 C CNN
F 4 "M" H 9000 1100 50  0001 C CNN "Distributor"
F 5 "710-74279220181" H 9000 1100 50  0001 C CNN "OrderNr"
	1    9000 1100
	0    1    1    0   
$EndComp
$Comp
L power:+3.3VA #PWR0133
U 1 1 5C63E82B
P 10700 1000
F 0 "#PWR0133" H 10700 850 50  0001 C CNN
F 1 "+3.3VA" H 10715 1173 50  0000 C CNN
F 2 "" H 10700 1000 50  0001 C CNN
F 3 "" H 10700 1000 50  0001 C CNN
	1    10700 1000
	1    0    0    -1  
$EndComp
$Comp
L Device:C C10
U 1 1 5C63E874
P 9200 1300
F 0 "C10" H 9200 1370 50  0000 L CNN
F 1 "100n" H 9150 1220 50  0000 L CNN
F 2 "Capacitor_SMD:C_0603_1608Metric" H 9238 1150 50  0001 C CNN
F 3 "~" H 9200 1300 50  0001 C CNN
	1    9200 1300
	1    0    0    -1  
$EndComp
$Comp
L Device:C C11
U 1 1 5C63ED4E
P 9450 1300
F 0 "C11" H 9450 1370 50  0000 L CNN
F 1 "100n" H 9400 1220 50  0000 L CNN
F 2 "Capacitor_SMD:C_0603_1608Metric" H 9488 1150 50  0001 C CNN
F 3 "~" H 9450 1300 50  0001 C CNN
	1    9450 1300
	1    0    0    -1  
$EndComp
$Comp
L Device:C C12
U 1 1 5C63EDA8
P 9700 1300
F 0 "C12" H 9700 1370 50  0000 L CNN
F 1 "100n" H 9650 1220 50  0000 L CNN
F 2 "Capacitor_SMD:C_0603_1608Metric" H 9738 1150 50  0001 C CNN
F 3 "~" H 9700 1300 50  0001 C CNN
	1    9700 1300
	1    0    0    -1  
$EndComp
$Comp
L Device:C C13
U 1 1 5C63EE02
P 9950 1300
F 0 "C13" H 9950 1370 50  0000 L CNN
F 1 "100n" H 9900 1220 50  0000 L CNN
F 2 "Capacitor_SMD:C_0603_1608Metric" H 9988 1150 50  0001 C CNN
F 3 "~" H 9950 1300 50  0001 C CNN
	1    9950 1300
	1    0    0    -1  
$EndComp
$Comp
L Device:C C14
U 1 1 5C63F352
P 10200 1300
F 0 "C14" H 10200 1370 50  0000 L CNN
F 1 "100n" H 10150 1220 50  0000 L CNN
F 2 "Capacitor_SMD:C_0603_1608Metric" H 10238 1150 50  0001 C CNN
F 3 "~" H 10200 1300 50  0001 C CNN
	1    10200 1300
	1    0    0    -1  
$EndComp
$Comp
L Device:C C15
U 1 1 5C63F3B0
P 10450 1300
F 0 "C15" H 10450 1370 50  0000 L CNN
F 1 "100n" H 10400 1220 50  0000 L CNN
F 2 "Capacitor_SMD:C_0603_1608Metric" H 10488 1150 50  0001 C CNN
F 3 "~" H 10450 1300 50  0001 C CNN
	1    10450 1300
	1    0    0    -1  
$EndComp
$Comp
L Device:C C16
U 1 1 5C63F969
P 10700 1300
F 0 "C16" H 10700 1370 50  0000 L CNN
F 1 "10µ" H 10650 1220 50  0000 L CNN
F 2 "Capacitor_SMD:C_0603_1608Metric" H 10738 1150 50  0001 C CNN
F 3 "~" H 10700 1300 50  0001 C CNN
	1    10700 1300
	1    0    0    -1  
$EndComp
Wire Wire Line
	9100 1100 9200 1100
Wire Wire Line
	10700 1100 10700 1150
Wire Wire Line
	10450 1150 10450 1100
Connection ~ 10450 1100
Wire Wire Line
	10450 1100 10700 1100
Wire Wire Line
	10200 1150 10200 1100
Connection ~ 10200 1100
Wire Wire Line
	10200 1100 10450 1100
Wire Wire Line
	9950 1150 9950 1100
Connection ~ 9950 1100
Wire Wire Line
	9950 1100 10200 1100
Wire Wire Line
	9700 1150 9700 1100
Connection ~ 9700 1100
Wire Wire Line
	9700 1100 9950 1100
Wire Wire Line
	9450 1150 9450 1100
Connection ~ 9450 1100
Wire Wire Line
	9450 1100 9700 1100
Wire Wire Line
	9200 1150 9200 1100
Connection ~ 9200 1100
Wire Wire Line
	9200 1100 9450 1100
Wire Wire Line
	10700 1500 10700 1450
Wire Wire Line
	10450 1450 10450 1500
Wire Wire Line
	10200 1500 10200 1450
Wire Wire Line
	9950 1450 9950 1500
Wire Wire Line
	9700 1500 9700 1450
Wire Wire Line
	9450 1450 9450 1500
Wire Wire Line
	9200 1500 9200 1450
Wire Wire Line
	10700 1000 10700 1100
Connection ~ 10700 1100
$Comp
L power:+3V3 #PWR0141
U 1 1 5C69F3F8
P 8800 1100
F 0 "#PWR0141" H 8800 950 50  0001 C CNN
F 1 "+3V3" V 8815 1228 50  0000 L CNN
F 2 "" H 8800 1100 50  0001 C CNN
F 3 "" H 8800 1100 50  0001 C CNN
	1    8800 1100
	0    -1   -1   0   
$EndComp
Wire Wire Line
	8800 1100 8900 1100
$Comp
L Device:C C2
U 1 1 5C6A744A
P 4800 4550
F 0 "C2" H 4800 4620 50  0000 L CNN
F 1 "100n" H 4750 4470 50  0000 L CNN
F 2 "Capacitor_SMD:C_0603_1608Metric" H 4838 4400 50  0001 C CNN
F 3 "~" H 4800 4550 50  0001 C CNN
	1    4800 4550
	1    0    0    -1  
$EndComp
$Comp
L Device:C C3
U 1 1 5C6A7451
P 5050 4550
F 0 "C3" H 5050 4620 50  0000 L CNN
F 1 "10µ" H 5000 4470 50  0000 L CNN
F 2 "Capacitor_SMD:C_0603_1608Metric" H 5088 4400 50  0001 C CNN
F 3 "~" H 5050 4550 50  0001 C CNN
	1    5050 4550
	1    0    0    -1  
$EndComp
Wire Wire Line
	5050 4750 5050 4700
Wire Wire Line
	4800 4700 4800 4750
$Comp
L power:GND #PWR0142
U 1 1 5C6AE88C
P 4800 4750
F 0 "#PWR0142" H 4800 4500 50  0001 C CNN
F 1 "GND" H 4805 4577 50  0000 C CNN
F 2 "" H 4800 4750 50  0001 C CNN
F 3 "" H 4800 4750 50  0001 C CNN
	1    4800 4750
	1    0    0    -1  
$EndComp
$Comp
L power:GND #PWR0143
U 1 1 5C6AEDE7
P 5050 4750
F 0 "#PWR0143" H 5050 4500 50  0001 C CNN
F 1 "GND" H 5055 4577 50  0000 C CNN
F 2 "" H 5050 4750 50  0001 C CNN
F 3 "" H 5050 4750 50  0001 C CNN
	1    5050 4750
	1    0    0    -1  
$EndComp
$Comp
L power:+3V3 #PWR0144
U 1 1 5C6AF342
P 4800 4400
F 0 "#PWR0144" H 4800 4250 50  0001 C CNN
F 1 "+3V3" H 4815 4573 50  0000 C CNN
F 2 "" H 4800 4400 50  0001 C CNN
F 3 "" H 4800 4400 50  0001 C CNN
	1    4800 4400
	1    0    0    -1  
$EndComp
$Comp
L power:+3V3 #PWR0145
U 1 1 5C6AF447
P 5050 4400
F 0 "#PWR0145" H 5050 4250 50  0001 C CNN
F 1 "+3V3" H 5065 4573 50  0000 C CNN
F 2 "" H 5050 4400 50  0001 C CNN
F 3 "" H 5050 4400 50  0001 C CNN
	1    5050 4400
	1    0    0    -1  
$EndComp
$Comp
L power:GND #PWR0101
U 1 1 5C6BDEA9
P 6400 4850
F 0 "#PWR0101" H 6400 4600 50  0001 C CNN
F 1 "GND" H 6405 4677 50  0000 C CNN
F 2 "" H 6400 4850 50  0001 C CNN
F 3 "" H 6400 4850 50  0001 C CNN
	1    6400 4850
	1    0    0    -1  
$EndComp
$Comp
L power:GND #PWR0102
U 1 1 5C6BDF09
P 6600 4850
F 0 "#PWR0102" H 6600 4600 50  0001 C CNN
F 1 "GND" H 6605 4677 50  0000 C CNN
F 2 "" H 6600 4850 50  0001 C CNN
F 3 "" H 6600 4850 50  0001 C CNN
	1    6600 4850
	1    0    0    -1  
$EndComp
$Comp
L power:GND #PWR0120
U 1 1 5C6BDF62
P 6700 4350
F 0 "#PWR0120" H 6700 4100 50  0001 C CNN
F 1 "GND" H 6705 4177 50  0000 C CNN
F 2 "" H 6700 4350 50  0001 C CNN
F 3 "" H 6700 4350 50  0001 C CNN
	1    6700 4350
	1    0    0    -1  
$EndComp
$Comp
L power:GND #PWR0121
U 1 1 5C6BDFBB
P 7000 4350
F 0 "#PWR0121" H 7000 4100 50  0001 C CNN
F 1 "GND" H 7005 4177 50  0000 C CNN
F 2 "" H 7000 4350 50  0001 C CNN
F 3 "" H 7000 4350 50  0001 C CNN
	1    7000 4350
	1    0    0    -1  
$EndComp
$Comp
L power:GND #PWR0122
U 1 1 5C6BE014
P 7200 4350
F 0 "#PWR0122" H 7200 4100 50  0001 C CNN
F 1 "GND" H 7205 4177 50  0000 C CNN
F 2 "" H 7200 4350 50  0001 C CNN
F 3 "" H 7200 4350 50  0001 C CNN
	1    7200 4350
	1    0    0    -1  
$EndComp
$Comp
L power:GND #PWR0123
U 1 1 5C6BE06D
P 8150 4000
F 0 "#PWR0123" H 8150 3750 50  0001 C CNN
F 1 "GND" H 8155 3827 50  0000 C CNN
F 2 "" H 8150 4000 50  0001 C CNN
F 3 "" H 8150 4000 50  0001 C CNN
	1    8150 4000
	1    0    0    -1  
$EndComp
$Comp
L power:GND #PWR0124
U 1 1 5C6BE0C6
P 8700 5000
F 0 "#PWR0124" H 8700 4750 50  0001 C CNN
F 1 "GND" H 8705 4827 50  0000 C CNN
F 2 "" H 8700 5000 50  0001 C CNN
F 3 "" H 8700 5000 50  0001 C CNN
	1    8700 5000
	1    0    0    -1  
$EndComp
$Comp
L power:GND #PWR0125
U 1 1 5C6BE11F
P 8900 3300
F 0 "#PWR0125" H 8900 3050 50  0001 C CNN
F 1 "GND" H 8905 3127 50  0000 C CNN
F 2 "" H 8900 3300 50  0001 C CNN
F 3 "" H 8900 3300 50  0001 C CNN
	1    8900 3300
	1    0    0    -1  
$EndComp
$Comp
L power:GND #PWR0126
U 1 1 5C6BE178
P 7850 3500
F 0 "#PWR0126" H 7850 3250 50  0001 C CNN
F 1 "GND" V 7855 3372 50  0000 R CNN
F 2 "" H 7850 3500 50  0001 C CNN
F 3 "" H 7850 3500 50  0001 C CNN
	1    7850 3500
	0    -1   -1   0   
$EndComp
$Comp
L power:GND #PWR0127
U 1 1 5C6BE246
P 7850 2900
F 0 "#PWR0127" H 7850 2650 50  0001 C CNN
F 1 "GND" V 7855 2772 50  0000 R CNN
F 2 "" H 7850 2900 50  0001 C CNN
F 3 "" H 7850 2900 50  0001 C CNN
	1    7850 2900
	0    -1   -1   0   
$EndComp
$Comp
L power:GND #PWR0130
U 1 1 5C6BE29F
P 7300 2150
F 0 "#PWR0130" H 7300 1900 50  0001 C CNN
F 1 "GND" H 7305 1977 50  0000 C CNN
F 2 "" H 7300 2150 50  0001 C CNN
F 3 "" H 7300 2150 50  0001 C CNN
	1    7300 2150
	-1   0    0    1   
$EndComp
$Comp
L power:GND #PWR0131
U 1 1 5C6C0D5F
P 9200 1500
F 0 "#PWR0131" H 9200 1250 50  0001 C CNN
F 1 "GND" H 9205 1327 50  0000 C CNN
F 2 "" H 9200 1500 50  0001 C CNN
F 3 "" H 9200 1500 50  0001 C CNN
	1    9200 1500
	1    0    0    -1  
$EndComp
$Comp
L power:GND #PWR0132
U 1 1 5C6C1271
P 9450 1500
F 0 "#PWR0132" H 9450 1250 50  0001 C CNN
F 1 "GND" H 9455 1327 50  0000 C CNN
F 2 "" H 9450 1500 50  0001 C CNN
F 3 "" H 9450 1500 50  0001 C CNN
	1    9450 1500
	1    0    0    -1  
$EndComp
$Comp
L power:GND #PWR0134
U 1 1 5C6C12CA
P 9700 1500
F 0 "#PWR0134" H 9700 1250 50  0001 C CNN
F 1 "GND" H 9705 1327 50  0000 C CNN
F 2 "" H 9700 1500 50  0001 C CNN
F 3 "" H 9700 1500 50  0001 C CNN
	1    9700 1500
	1    0    0    -1  
$EndComp
$Comp
L power:GND #PWR0135
U 1 1 5C6C1323
P 9950 1500
F 0 "#PWR0135" H 9950 1250 50  0001 C CNN
F 1 "GND" H 9955 1327 50  0000 C CNN
F 2 "" H 9950 1500 50  0001 C CNN
F 3 "" H 9950 1500 50  0001 C CNN
	1    9950 1500
	1    0    0    -1  
$EndComp
$Comp
L power:GND #PWR0136
U 1 1 5C6C137C
P 10200 1500
F 0 "#PWR0136" H 10200 1250 50  0001 C CNN
F 1 "GND" H 10205 1327 50  0000 C CNN
F 2 "" H 10200 1500 50  0001 C CNN
F 3 "" H 10200 1500 50  0001 C CNN
	1    10200 1500
	1    0    0    -1  
$EndComp
$Comp
L power:GND #PWR0137
U 1 1 5C6C13D5
P 10450 1500
F 0 "#PWR0137" H 10450 1250 50  0001 C CNN
F 1 "GND" H 10455 1327 50  0000 C CNN
F 2 "" H 10450 1500 50  0001 C CNN
F 3 "" H 10450 1500 50  0001 C CNN
	1    10450 1500
	1    0    0    -1  
$EndComp
$Comp
L power:GND #PWR0138
U 1 1 5C6C142E
P 10700 1500
F 0 "#PWR0138" H 10700 1250 50  0001 C CNN
F 1 "GND" H 10705 1327 50  0000 C CNN
F 2 "" H 10700 1500 50  0001 C CNN
F 3 "" H 10700 1500 50  0001 C CNN
	1    10700 1500
	1    0    0    -1  
$EndComp
$Comp
L Connector_Generic:Conn_02x06_Odd_Even J2
U 1 1 5C527BF1
P 1050 6700
F 0 "J2" H 1100 7025 50  0000 C CNN
F 1 "Conn_02x06_Odd_Even" H 1100 7026 50  0001 C CNN
F 2 "Connector_PinHeader_2.54mm:PinHeader_2x06_P2.54mm_Vertical" H 1050 6700 50  0001 C CNN
F 3 "~" H 1050 6700 50  0001 C CNN
	1    1050 6700
	1    0    0    1   
$EndComp
$Comp
L Connector_Generic:Conn_02x08_Counter_Clockwise J5
U 1 1 5C527D88
P 2700 6600
F 0 "J5" H 2750 7025 50  0000 C CNN
F 1 "Conn_02x08_Counter_Clockwise" H 2750 7026 50  0001 C CNN
F 2 "Connector_PinHeader_2.54mm:PinHeader_2x08_P2.54mm_Vertical" H 2700 6600 50  0001 C CNN
F 3 "~" H 2700 6600 50  0001 C CNN
	1    2700 6600
	1    0    0    1   
$EndComp
$Comp
L Connector_Generic:Conn_01x08 J1
U 1 1 5C52805A
P 1050 5900
F 0 "J1" H 1130 5846 50  0000 L CNN
F 1 "Conn_01x08" H 1130 5801 50  0001 L CNN
F 2 "Connector_PinHeader_2.54mm:PinHeader_1x08_P2.54mm_Vertical" H 1050 5900 50  0001 C CNN
F 3 "~" H 1050 5900 50  0001 C CNN
	1    1050 5900
	1    0    0    1   
$EndComp
$Comp
L Connector_Generic:Conn_01x04 J3
U 1 1 5C528182
P 1150 6100
F 0 "J3" H 1070 6325 50  0000 C CNN
F 1 "Conn_01x04" H 1070 6326 50  0001 C CNN
F 2 "Connector_PinHeader_2.54mm:PinHeader_1x04_P2.54mm_Vertical" H 1150 6100 50  0001 C CNN
F 3 "~" H 1150 6100 50  0001 C CNN
	1    1150 6100
	-1   0    0    1   
$EndComp
$Comp
L Connector_Generic:Conn_01x08 J4
U 1 1 5C52827A
P 2700 5750
F 0 "J4" H 2780 5696 50  0000 L CNN
F 1 "Conn_01x08" H 2780 5651 50  0001 L CNN
F 2 "Connector_PinHeader_2.54mm:PinHeader_1x08_P2.54mm_Vertical" H 2700 5750 50  0001 C CNN
F 3 "~" H 2700 5750 50  0001 C CNN
	1    2700 5750
	1    0    0    1   
$EndComp
$Comp
L Connector_Generic:Conn_01x10 J6
U 1 1 5C5283C6
P 2800 5650
F 0 "J6" H 2720 6175 50  0000 C CNN
F 1 "Conn_01x10" H 2720 6176 50  0001 C CNN
F 2 "Connector_PinHeader_2.54mm:PinHeader_1x10_P2.54mm_Vertical" H 2800 5650 50  0001 C CNN
F 3 "~" H 2800 5650 50  0001 C CNN
	1    2800 5650
	-1   0    0    1   
$EndComp
$Comp
L Connector_Generic:Conn_02x05_Odd_Even J7
U 1 1 5C551F4D
P 5460 7030
F 0 "J7" H 5510 7447 50  0000 C CNN
F 1 "SWD" H 5510 7356 50  0000 C CNN
F 2 "Connector_IDC:IDC-Header_2x05_P2.54mm_Vertical" H 5460 7030 50  0001 C CNN
F 3 "~" H 5460 7030 50  0001 C CNN
	1    5460 7030
	1    0    0    -1  
$EndComp
Text Label 4760 6830 0    50   ~ 0
SWD_RESET
Wire Wire Line
	4760 6830 5260 6830
$Comp
L power:GND #PWR0139
U 1 1 5C551F56
P 4760 7230
F 0 "#PWR0139" H 4760 6980 50  0001 C CNN
F 1 "GND" H 4810 7080 50  0000 R CNN
F 2 "" H 4760 7230 50  0001 C CNN
F 3 "" H 4760 7230 50  0001 C CNN
	1    4760 7230
	1    0    0    -1  
$EndComp
Text Label 6210 6830 2    50   ~ 0
SWD_DIO
Wire Wire Line
	6210 6830 5760 6830
Text Label 6210 7030 2    50   ~ 0
SWD_CLK
Wire Wire Line
	5760 7030 6210 7030
$Comp
L power:GND #PWR0140
U 1 1 5C551F60
P 6310 7230
F 0 "#PWR0140" H 6310 6980 50  0001 C CNN
F 1 "GND" H 6360 7080 50  0000 R CNN
F 2 "" H 6310 7230 50  0001 C CNN
F 3 "" H 6310 7230 50  0001 C CNN
	1    6310 7230
	1    0    0    -1  
$EndComp
NoConn ~ 5260 7030
NoConn ~ 5260 7130
NoConn ~ 5260 7230
NoConn ~ 5760 7230
NoConn ~ 5760 7130
Wire Notes Line
	4610 7530 6460 7530
Wire Notes Line
	6460 7530 6460 6180
Wire Notes Line
	6460 6180 4610 6180
Wire Notes Line
	4610 6180 4610 7530
Text Notes 4710 6430 0    118  ~ 24
Debugger
Wire Wire Line
	6310 7230 6310 6930
Wire Wire Line
	5760 6930 6310 6930
Wire Wire Line
	4760 7230 4760 6930
Wire Wire Line
	4760 6930 5260 6930
Text Label 3700 5150 0    50   ~ 0
I2C_SCL
Text Label 3700 5250 0    50   ~ 0
I2C_SDA
$Comp
L power:GND #PWR0146
U 1 1 5C5402B4
P 3600 5450
F 0 "#PWR0146" H 3600 5200 50  0001 C CNN
F 1 "GND" V 3605 5322 50  0000 R CNN
F 2 "" H 3600 5450 50  0001 C CNN
F 3 "" H 3600 5450 50  0001 C CNN
	1    3600 5450
	0    -1   -1   0   
$EndComp
Wire Wire Line
	3000 5450 3600 5450
$Comp
L power:+3V3 #PWR0147
U 1 1 5C5481B3
P 800 5800
F 0 "#PWR0147" H 800 5650 50  0001 C CNN
F 1 "+3V3" V 815 5928 50  0000 L CNN
F 2 "" H 800 5800 50  0001 C CNN
F 3 "" H 800 5800 50  0001 C CNN
	1    800  5800
	0    -1   -1   0   
$EndComp
Wire Wire Line
	800  5800 850  5800
Text Label 3700 5550 0    50   ~ 0
SWD_CLK
Text Label 3700 5650 0    50   ~ 0
SWD_DIO
Text Label 3700 5750 0    50   ~ 0
SWD_RESET
Wire Wire Line
	2500 5350 1850 5350
Wire Wire Line
	2500 5450 1850 5450
Wire Wire Line
	2500 5550 1850 5550
Wire Wire Line
	2500 5650 1850 5650
Wire Wire Line
	2500 5750 1850 5750
Wire Wire Line
	2500 5850 1850 5850
Text GLabel 1850 5850 0    50   Output ~ 0
SCS0n
Text GLabel 1850 5750 0    50   Output ~ 0
SCLK0
Text GLabel 1850 5450 0    50   Input ~ 0
MISO0
Text GLabel 1850 5650 0    50   Output ~ 0
MOSI0
Text GLabel 1850 5550 0    50   Input ~ 0
INTn
Text GLabel 1850 5350 0    50   Output ~ 0
RSTn
$Comp
L mylib:ATECC608A U3
U 1 1 5C5A8EBB
P 2100 3650
F 0 "U3" H 2125 4015 50  0000 C CNN
F 1 "ATECC608A" H 2125 3924 50  0000 C CNN
F 2 "Package_SO:SOIC-8_3.9x4.9mm_P1.27mm" H 1950 3700 50  0001 C CNN
F 3 "" H 1950 3700 50  0001 C CNN
F 4 "M" H 2100 3650 50  0001 C CNN "Distributor"
F 5 "556-ATECC608ASSHDAB" H 2100 3650 50  0001 C CNN "OrderNr"
	1    2100 3650
	1    0    0    -1  
$EndComp
$Comp
L power:GND #PWR0148
U 1 1 5C5A90CE
P 1800 3850
F 0 "#PWR0148" H 1800 3600 50  0001 C CNN
F 1 "GND" H 1805 3677 50  0000 C CNN
F 2 "" H 1800 3850 50  0001 C CNN
F 3 "" H 1800 3850 50  0001 C CNN
	1    1800 3850
	1    0    0    -1  
$EndComp
$Comp
L power:+3V3 #PWR0149
U 1 1 5C5A91D1
P 2500 3500
F 0 "#PWR0149" H 2500 3350 50  0001 C CNN
F 1 "+3V3" H 2515 3673 50  0000 C CNN
F 2 "" H 2500 3500 50  0001 C CNN
F 3 "" H 2500 3500 50  0001 C CNN
	1    2500 3500
	1    0    0    -1  
$EndComp
Wire Wire Line
	2500 3500 2500 3550
Wire Wire Line
	2500 3550 2450 3550
$Comp
L Device:C C17
U 1 1 5C5B24DF
P 1450 3700
F 0 "C17" H 1335 3654 50  0000 R CNN
F 1 "100n" H 1335 3745 50  0000 R CNN
F 2 "Capacitor_SMD:C_0603_1608Metric" H 1488 3550 50  0001 C CNN
F 3 "~" H 1450 3700 50  0001 C CNN
	1    1450 3700
	-1   0    0    1   
$EndComp
$Comp
L power:+3V3 #PWR0150
U 1 1 5C5B24E5
P 1450 3450
F 0 "#PWR0150" H 1450 3300 50  0001 C CNN
F 1 "+3V3" H 1465 3623 50  0000 C CNN
F 2 "" H 1450 3450 50  0001 C CNN
F 3 "" H 1450 3450 50  0001 C CNN
	1    1450 3450
	1    0    0    -1  
$EndComp
$Comp
L power:GND #PWR0151
U 1 1 5C5B24EB
P 1450 3950
F 0 "#PWR0151" H 1450 3700 50  0001 C CNN
F 1 "GND" H 1455 3777 50  0000 C CNN
F 2 "" H 1450 3950 50  0001 C CNN
F 3 "" H 1450 3950 50  0001 C CNN
	1    1450 3950
	1    0    0    -1  
$EndComp
Wire Wire Line
	1450 3950 1450 3850
Wire Wire Line
	1450 3550 1450 3450
Text Label 2450 3750 0    50   ~ 0
I2C_SCL
Text Label 2450 3850 0    50   ~ 0
I2C_SDA
$Comp
L Device:R R20
U 1 1 5C5CF17E
P 2800 3500
F 0 "R20" V 2750 3300 50  0000 L CNN
F 1 "2.7k" V 2800 3420 50  0000 L CNN
F 2 "Resistor_SMD:R_0603_1608Metric" V 2730 3500 50  0001 C CNN
F 3 "~" H 2800 3500 50  0001 C CNN
	1    2800 3500
	1    0    0    -1  
$EndComp
$Comp
L Device:R R21
U 1 1 5C5CF2F3
P 2900 3500
F 0 "R21" V 2850 3300 50  0000 L CNN
F 1 "2.7k" V 2900 3420 50  0000 L CNN
F 2 "Resistor_SMD:R_0603_1608Metric" V 2830 3500 50  0001 C CNN
F 3 "~" H 2900 3500 50  0001 C CNN
	1    2900 3500
	1    0    0    -1  
$EndComp
Wire Wire Line
	2450 3750 2800 3750
Wire Wire Line
	2450 3850 2900 3850
Wire Wire Line
	2800 3650 2800 3750
Connection ~ 2800 3750
Wire Wire Line
	2800 3750 3000 3750
Wire Wire Line
	2900 3650 2900 3850
Connection ~ 2900 3850
Wire Wire Line
	2900 3850 3000 3850
$Comp
L power:+3V3 #PWR0152
U 1 1 5C5F69ED
P 2800 3250
F 0 "#PWR0152" H 2800 3100 50  0001 C CNN
F 1 "+3V3" H 2815 3423 50  0000 C CNN
F 2 "" H 2800 3250 50  0001 C CNN
F 3 "" H 2800 3250 50  0001 C CNN
	1    2800 3250
	1    0    0    -1  
$EndComp
Wire Wire Line
	2800 3250 2800 3300
Wire Wire Line
	2800 3300 2900 3300
Wire Wire Line
	2900 3300 2900 3350
Connection ~ 2800 3300
Wire Wire Line
	2800 3300 2800 3350
Wire Wire Line
	2500 5950 1850 5950
$Comp
L Memory_NVRAM:MB85RS16 U4
U 1 1 5C5AB445
P 2250 2400
F 0 "U4" H 2000 2650 50  0000 C CNN
F 1 "SST25VF080B-50-4I-S2AF-T" H 2850 2650 50  0000 C CNN
F 2 "Package_SO:SOIJ-8_5.3x5.3mm_P1.27mm" H 1900 2350 50  0001 C CNN
F 3 "http://www.fujitsu.com/downloads/MICRO/fsa/pdf/products/memory/fram/MB85RS16-DS501-00014-6v0-E.pdf" H 1900 2350 50  0001 C CNN
F 4 "M" H 2250 2400 50  0001 C CNN "Distributor"
F 5 "804-25VF080B5IS2AF-T" H 2250 2400 50  0001 C CNN "OrderNr"
	1    2250 2400
	1    0    0    -1  
$EndComp
Wire Wire Line
	1850 2400 1700 2400
Wire Wire Line
	1700 2400 1700 2300
Wire Wire Line
	1700 2300 1850 2300
$Comp
L power:+3V3 #PWR0153
U 1 1 5C5FCAEE
P 1700 2050
F 0 "#PWR0153" H 1700 1900 50  0001 C CNN
F 1 "+3V3" H 1715 2223 50  0000 C CNN
F 2 "" H 1700 2050 50  0001 C CNN
F 3 "" H 1700 2050 50  0001 C CNN
	1    1700 2050
	1    0    0    -1  
$EndComp
$Comp
L power:+3V3 #PWR0154
U 1 1 5C5FCB66
P 2250 2050
F 0 "#PWR0154" H 2250 1900 50  0001 C CNN
F 1 "+3V3" H 2265 2223 50  0000 C CNN
F 2 "" H 2250 2050 50  0001 C CNN
F 3 "" H 2250 2050 50  0001 C CNN
	1    2250 2050
	1    0    0    -1  
$EndComp
$Comp
L power:GND #PWR0155
U 1 1 5C5FCC59
P 2250 2750
F 0 "#PWR0155" H 2250 2500 50  0001 C CNN
F 1 "GND" H 2255 2577 50  0000 C CNN
F 2 "" H 2250 2750 50  0001 C CNN
F 3 "" H 2250 2750 50  0001 C CNN
	1    2250 2750
	1    0    0    -1  
$EndComp
Wire Wire Line
	2250 2750 2250 2700
Wire Wire Line
	1700 2300 1700 2050
Connection ~ 1700 2300
Wire Wire Line
	2250 2050 2250 2100
Text GLabel 1850 5950 0    50   Output ~ 0
SCS1n
Wire Wire Line
	2650 2400 2900 2400
Wire Wire Line
	2650 2500 2900 2500
Wire Wire Line
	2650 2300 2900 2300
Wire Wire Line
	1850 2500 1550 2500
Text GLabel 1550 2500 0    50   Input ~ 0
SCS1n
Text GLabel 2900 2500 2    50   Output ~ 0
MISO1
Text GLabel 2900 2400 2    50   Input ~ 0
MOSI1
Text GLabel 2900 2300 2    50   Input ~ 0
SCLK1
$Comp
L Device:C C18
U 1 1 5C5819A6
P 900 2350
F 0 "C18" H 785 2304 50  0000 R CNN
F 1 "100n" H 785 2395 50  0000 R CNN
F 2 "Capacitor_SMD:C_0603_1608Metric" H 938 2200 50  0001 C CNN
F 3 "~" H 900 2350 50  0001 C CNN
	1    900  2350
	-1   0    0    1   
$EndComp
$Comp
L power:+3V3 #PWR0156
U 1 1 5C5819AC
P 900 2100
F 0 "#PWR0156" H 900 1950 50  0001 C CNN
F 1 "+3V3" H 915 2273 50  0000 C CNN
F 2 "" H 900 2100 50  0001 C CNN
F 3 "" H 900 2100 50  0001 C CNN
	1    900  2100
	1    0    0    -1  
$EndComp
$Comp
L power:GND #PWR0157
U 1 1 5C5819B2
P 900 2600
F 0 "#PWR0157" H 900 2350 50  0001 C CNN
F 1 "GND" H 905 2427 50  0000 C CNN
F 2 "" H 900 2600 50  0001 C CNN
F 3 "" H 900 2600 50  0001 C CNN
	1    900  2600
	1    0    0    -1  
$EndComp
Wire Wire Line
	900  2600 900  2500
Wire Wire Line
	900  2200 900  2100
Text GLabel 1850 6050 0    50   Input ~ 0
MISO1
Text GLabel 3750 5850 2    50   Output ~ 0
MOSI1
Wire Wire Line
	3750 5850 3000 5850
Wire Wire Line
	1850 6050 2500 6050
Text GLabel 3750 5950 2    50   Output ~ 0
SCLK1
Wire Wire Line
	3750 5950 3000 5950
$Comp
L Device:C C19
U 1 1 5C5C866B
P 1050 4650
F 0 "C19" H 935 4604 50  0000 R CNN
F 1 "47µ" H 935 4695 50  0000 R CNN
F 2 "Capacitor_SMD:C_0805_2012Metric" H 1088 4500 50  0001 C CNN
F 3 "~" H 1050 4650 50  0001 C CNN
	1    1050 4650
	-1   0    0    1   
$EndComp
$Comp
L Device:C C20
U 1 1 5C5C877E
P 1400 4650
F 0 "C20" H 1285 4604 50  0000 R CNN
F 1 "22µ" H 1285 4695 50  0000 R CNN
F 2 "Capacitor_SMD:C_0805_2012Metric" H 1438 4500 50  0001 C CNN
F 3 "~" H 1400 4650 50  0001 C CNN
	1    1400 4650
	-1   0    0    1   
$EndComp
$Comp
L Device:C C21
U 1 1 5C5C8875
P 1750 4650
F 0 "C21" H 1635 4604 50  0000 R CNN
F 1 "10µ" H 1635 4695 50  0000 R CNN
F 2 "Capacitor_SMD:C_0603_1608Metric" H 1788 4500 50  0001 C CNN
F 3 "~" H 1750 4650 50  0001 C CNN
	1    1750 4650
	-1   0    0    1   
$EndComp
$Comp
L power:GND #PWR0158
U 1 1 5C5C89E6
P 1050 4800
F 0 "#PWR0158" H 1050 4550 50  0001 C CNN
F 1 "GND" H 1055 4627 50  0000 C CNN
F 2 "" H 1050 4800 50  0001 C CNN
F 3 "" H 1050 4800 50  0001 C CNN
	1    1050 4800
	1    0    0    -1  
$EndComp
$Comp
L power:GND #PWR0159
U 1 1 5C5C8A5F
P 1400 4800
F 0 "#PWR0159" H 1400 4550 50  0001 C CNN
F 1 "GND" H 1405 4627 50  0000 C CNN
F 2 "" H 1400 4800 50  0001 C CNN
F 3 "" H 1400 4800 50  0001 C CNN
	1    1400 4800
	1    0    0    -1  
$EndComp
$Comp
L power:GND #PWR0160
U 1 1 5C5C8AD8
P 1750 4800
F 0 "#PWR0160" H 1750 4550 50  0001 C CNN
F 1 "GND" H 1755 4627 50  0000 C CNN
F 2 "" H 1750 4800 50  0001 C CNN
F 3 "" H 1750 4800 50  0001 C CNN
	1    1750 4800
	1    0    0    -1  
$EndComp
$Comp
L power:+3V3 #PWR0161
U 1 1 5C5C8B51
P 1050 4500
F 0 "#PWR0161" H 1050 4350 50  0001 C CNN
F 1 "+3V3" H 1065 4673 50  0000 C CNN
F 2 "" H 1050 4500 50  0001 C CNN
F 3 "" H 1050 4500 50  0001 C CNN
	1    1050 4500
	1    0    0    -1  
$EndComp
$Comp
L power:+3V3 #PWR0162
U 1 1 5C5C8BCA
P 1400 4500
F 0 "#PWR0162" H 1400 4350 50  0001 C CNN
F 1 "+3V3" H 1415 4673 50  0000 C CNN
F 2 "" H 1400 4500 50  0001 C CNN
F 3 "" H 1400 4500 50  0001 C CNN
	1    1400 4500
	1    0    0    -1  
$EndComp
$Comp
L power:+3V3 #PWR0163
U 1 1 5C5C8C43
P 1750 4500
F 0 "#PWR0163" H 1750 4350 50  0001 C CNN
F 1 "+3V3" H 1765 4673 50  0000 C CNN
F 2 "" H 1750 4500 50  0001 C CNN
F 3 "" H 1750 4500 50  0001 C CNN
	1    1750 4500
	1    0    0    -1  
$EndComp
$Comp
L power:GND #PWR0164
U 1 1 5C5CA2EA
P 850 6100
F 0 "#PWR0164" H 850 5850 50  0001 C CNN
F 1 "GND" V 855 5972 50  0000 R CNN
F 2 "" H 850 6100 50  0001 C CNN
F 3 "" H 850 6100 50  0001 C CNN
	1    850  6100
	0    1    1    0   
$EndComp
$Comp
L power:GND #PWR0165
U 1 1 5C5CA3A1
P 850 6000
F 0 "#PWR0165" H 850 5750 50  0001 C CNN
F 1 "GND" V 855 5872 50  0000 R CNN
F 2 "" H 850 6000 50  0001 C CNN
F 3 "" H 850 6000 50  0001 C CNN
	1    850  6000
	0    1    1    0   
$EndComp
$Comp
L power:GND #PWR0103
U 1 1 5C5CC98F
P 10350 2550
F 0 "#PWR0103" H 10350 2300 50  0001 C CNN
F 1 "GND" H 10355 2377 50  0000 C CNN
F 2 "" H 10350 2550 50  0001 C CNN
F 3 "" H 10350 2550 50  0001 C CNN
	1    10350 2550
	1    0    0    -1  
$EndComp
$Comp
L power:GND #PWR0104
U 1 1 5C5CCA0F
P 9600 3550
F 0 "#PWR0104" H 9600 3300 50  0001 C CNN
F 1 "GND" H 9605 3377 50  0000 C CNN
F 2 "" H 9600 3550 50  0001 C CNN
F 3 "" H 9600 3550 50  0001 C CNN
	1    9600 3550
	1    0    0    -1  
$EndComp
Wire Wire Line
	3000 5150 3800 5150
Wire Wire Line
	3000 5250 3800 5250
Wire Wire Line
	3000 5550 3800 5550
Wire Wire Line
	3000 5650 3800 5650
Wire Wire Line
	3000 5750 3800 5750
Text Notes 1900 5350 0    50   ~ 0
IO41
Text Notes 1900 5450 0    50   ~ 0
IO40
Text Notes 1900 5550 0    50   ~ 0
IO39
Text Notes 1900 5650 0    50   ~ 0
IO38
Text Notes 1900 5750 0    50   ~ 0
IO37
Text Notes 1900 5850 0    50   ~ 0
IO36
Text Notes 1900 5950 0    50   ~ 0
IO35
Text Notes 1900 6050 0    50   ~ 0
IO34
Text Notes 3050 5950 0    50   ~ 0
IO9
Text Notes 3050 5850 0    50   ~ 0
IO10
Text Notes 3050 5750 0    50   ~ 0
IO11
Text Notes 3050 5650 0    50   ~ 0
IO12
Text Notes 3050 5550 0    50   ~ 0
IO13
Text Notes 3050 6050 0    50   ~ 0
IO8
Text Notes 3350 6050 0    50   ~ 0
R15
Text Notes 3350 5950 0    50   ~ 0
T15
Text Notes 2200 5350 0    50   ~ 0
U15
Text Notes 2200 5450 0    50   ~ 0
V16
Text Notes 2200 5850 0    50   ~ 0
P13
Text Notes 2200 5950 0    50   ~ 0
R13
Text Notes 2200 6050 0    50   ~ 0
V14
Text Notes 3350 5850 0    50   ~ 0
H16
Text Notes 3350 5750 0    50   ~ 0
H17
Text Notes 3350 5650 0    50   ~ 0
K14
Text Notes 3350 5550 0    50   ~ 0
G16
Text Notes 2200 5750 0    50   ~ 0
U16
Text Notes 2200 5650 0    50   ~ 0
U18
Text Notes 2200 5550 0    50   ~ 0
U17
$EndSCHEMATC
